EMP NO,LAST NAME,FIRST NAME,MIDDLE NAME,POSITION,OFFICE,DIVISION,EMAIL,DATE OF ASSUMPTION,STATUS,SERIES
P2016-0001,Balisacan,Arsenio,M,Chairman,Office of the Chairman,Office of Chair AMB,ambalisacan@phcc.gov.ph,2/1/2016,P,0001
P2016-0002,Bernabe,Johannes Benjamin,R,Commissioner,Office of the Chairman,Office of Comm JRB,jrbernabe@phcc.gov.ph,2/1/2016,P,0002
P2016-0003,Quimbo,Stella Luz,A,Commissioner,Office of the Chairman,Office of Comm SAQ,saquimbo@phcc.gov.ph,2/1/2016,P,0003
P2016-0004,Manalang,Jonah Karl,R,Executive Assistant IV,Office of the Chairman,Office of Chair AMB,jrmanalang@phcc.gov.ph,6/1/2016,P,0004