NO EMPLOYEE HAS AGENCY ID P2017-0076
NO EMPLOYEE HAS AGENCY ID P2017-0089
NO EMPLOYEE HAS AGENCY ID P2017-0084
NO EMPLOYEE HAS AGENCY ID P2017-0074
NO EMPLOYEE HAS AGENCY ID P2017-0126
NO EMPLOYEE HAS AGENCY ID P2017-0081
NO EMPLOYEE HAS AGENCY ID 
NO EMPLOYEE HAS AGENCY ID P2017-0072
NO EMPLOYEE HAS AGENCY ID P2017-0075
NO EMPLOYEE HAS AGENCY ID P2017-0071
NO EMPLOYEE HAS AGENCY ID 
NO EMPLOYEE HAS AGENCY ID P2017-0078
NO EMPLOYEE HAS AGENCY ID P1900-0148
NO EMPLOYEE HAS AGENCY ID P2017-0079
NO EMPLOYEE HAS AGENCY ID P2017-0083
NO EMPLOYEE HAS AGENCY ID P1900-0153
NO EMPLOYEE HAS AGENCY ID P2017-0111
NO EMPLOYEE HAS AGENCY ID P2017-0080
NO EMPLOYEE HAS AGENCY ID 
NO EMPLOYEE HAS AGENCY ID P2017-0073
NO EMPLOYEE HAS AGENCY ID P2017-0086
NO EMPLOYEE HAS AGENCY ID T1900-0156
NO EMPLOYEE HAS AGENCY ID P2017-0077
NO EMPLOYEE HAS AGENCY ID P2017-0082
NO EMPLOYEE HAS AGENCY ID P2017-0124
NO EMPLOYEE HAS AGENCY ID P2017-0076
NO EMPLOYEE HAS AGENCY ID P2017-0089
NO EMPLOYEE HAS AGENCY ID P2017-0084
NO EMPLOYEE HAS AGENCY ID P2017-0074
NO EMPLOYEE HAS AGENCY ID P2017-0126
NO EMPLOYEE HAS AGENCY ID P2017-0081
NO EMPLOYEE HAS AGENCY ID P2017-0072
NO EMPLOYEE HAS AGENCY ID P2017-0075
NO EMPLOYEE HAS AGENCY ID P2017-0071
NO EMPLOYEE HAS AGENCY ID P2016-0142
NO EMPLOYEE HAS AGENCY ID P2017-0078
NO EMPLOYEE HAS AGENCY ID P1900-0148
NO EMPLOYEE HAS AGENCY ID P2017-0079
NO EMPLOYEE HAS AGENCY ID P2017-0083
NO EMPLOYEE HAS AGENCY ID P1900-0153
NO EMPLOYEE HAS AGENCY ID P2017-0111
NO EMPLOYEE HAS AGENCY ID P2017-0080
NO EMPLOYEE HAS AGENCY ID P2017-0073
NO EMPLOYEE HAS AGENCY ID P2017-0086
NO EMPLOYEE HAS AGENCY ID T1900-0156
NO EMPLOYEE HAS AGENCY ID P2017-0077
NO EMPLOYEE HAS AGENCY ID P2017-0082
NO EMPLOYEE HAS AGENCY ID P2017-0124
-----------------------------------------------------------------
P2017-0076 -- NO Employees Record
P2017-0089 -- NO Employees Record
P2017-0084 -- NO Employees Record
P2017-0074 -- NO Employees Record
P2017-0126 -- NO Employees Record
P2017-0081 -- NO Employees Record
P2017-0072 -- NO Employees Record
P2017-0075 -- NO Employees Record
P2017-0071 -- NO Employees Record
P2016-0142 -- NO Employees Record
P2017-0078 -- NO Employees Record
P1900-0148 -- NO Employees Record
P2017-0079 -- NO Employees Record
P2017-0083 -- NO Employees Record
P1900-0153 -- NO Employees Record
P2017-0111 -- NO Employees Record
P2017-0080 -- NO Employees Record
P2017-0073 -- NO Employees Record
P2017-0086 -- NO Employees Record
T1900-0156 -- NO Employees Record
P2017-0077 -- NO Employees Record
P2017-0082 -- NO Employees Record
P2017-0124 -- NO Employees Record
-----------------------------------------------------------------
